2020/03/17 16:29,0.50,39
2020/03/17 16:30,0.09,7
2020/03/17 16:31,0.09,7
2020/03/17 16:32,0.09,7
2020/03/17 16:33,0.09,7
2020/03/17 16:34,0.09,7
2020/03/17 16:35,0.09,7
2020/03/17 16:36,0.09,7
2020/03/17 16:37,0.09,7
2020/03/17 16:38,0.09,7
2020/03/17 16:39,0.16,12
2020/03/17 16:40,0.16,12
2020/03/17 16:41,0.10,8
2020/03/17 16:42,0.10,8
2020/03/17 16:43,0.10,8
2020/03/17 16:44,0.10,8
2020/03/17 16:45,0.16,12
2020/03/17 16:46,0.14,11
2020/03/17 16:47,0.13,10
2020/03/17 16:48,0.12,9
2020/03/17 16:49,0.16,12
2020/03/17 16:50,0.16,12
2020/03/17 16:51,0.10,8
2020/03/17 16:52,0.13,10
2020/03/17 16:53,0.09,7
2020/03/17 16:54,0.10,8
2020/03/17 16:55,0.12,9
2020/03/17 16:56,0.19,15
2020/03/17 16:57,0.18,14
2020/03/17 16:58,0.14,11
2020/03/17 16:59,0.16,12
2020/03/17 17:00,0.10,8
2020/03/17 17:01,0.10,8
2020/03/17 17:02,0.09,7
2020/03/17 17:03,0.09,7
2020/03/17 17:04,0.10,8
2020/03/17 17:05,0.13,10
2020/03/17 17:06,0.12,9
2020/03/17 17:07,0.12,9
2020/03/17 17:08,0.16,12
2020/03/17 17:09,0.17,13
2020/03/17 17:10,0.22,17
2020/03/17 17:11,0.25,19
2020/03/17 17:12,0.23,18
2020/03/17 17:13,0.25,19
2020/03/17 17:14,0.25,19
2020/03/17 17:15,0.25,19
2020/03/17 17:16,0.26,20
2020/03/17 17:17,0.28,22
2020/03/17 17:18,0.28,22
2020/03/17 17:19,0.28,22
2020/03/17 17:20,0.27,21
2020/03/17 17:21,0.26,20
2020/03/17 17:22,0.28,22
2020/03/17 17:23,0.28,22
2020/03/17 17:24,0.28,22
2020/03/17 17:25,0.26,20
2020/03/17 17:26,0.26,20
2020/03/17 17:27,0.27,21
2020/03/17 17:28,0.27,21
2020/03/17 17:29,0.28,22
2020/03/17 17:30,0.28,22
2020/03/17 17:31,0.31,24
2020/03/17 17:32,0.31,24
2020/03/17 17:33,0.30,23
2020/03/17 17:34,0.30,23
2020/03/17 17:35,0.30,23
2020/03/17 17:36,0.30,23
2020/03/17 17:37,0.31,24
2020/03/17 17:38,0.31,24
2020/03/17 17:39,0.31,24
2020/03/17 17:40,0.31,24
2020/03/17 17:41,0.31,24
2020/03/17 17:42,0.35,27
2020/03/17 17:43,0.40,31
2020/03/17 17:44,0.43,33
2020/03/17 17:45,0.41,32
2020/03/17 17:46,0.40,31
2020/03/17 17:47,0.41,32
2020/03/17 17:48,0.43,33
2020/03/17 17:49,0.44,34
2020/03/17 17:50,0.45,35
2020/03/17 17:51,0.45,35
2020/03/17 17:52,0.45,35
2020/03/17 17:53,0.45,35
2020/03/17 17:54,0.47,36
2020/03/17 17:55,0.47,36
2020/03/17 17:56,0.47,36
2020/03/17 17:57,0.48,37
2020/03/17 17:58,0.48,37
2020/03/17 17:59,0.45,35
2020/03/17 18:00,0.47,36
2020/03/17 18:01,0.45,35
2020/03/17 18:02,0.44,34
2020/03/17 18:03,0.43,33
2020/03/17 18:04,0.43,33
2020/03/17 18:05,0.43,33
2020/03/17 18:06,0.41,32
2020/03/17 18:07,0.41,32
2020/03/17 18:08,0.41,32
2020/03/17 18:09,0.43,33
2020/03/17 18:10,0.44,34
2020/03/17 18:11,0.47,36
2020/03/17 18:12,0.49,38
2020/03/17 18:13,0.50,39
2020/03/17 18:14,0.50,39
2020/03/17 18:15,0.50,39
2020/03/17 18:16,0.50,39
2020/03/17 18:17,0.52,40
2020/03/17 18:18,0.53,41
2020/03/17 18:19,0.56,43
2020/03/17 18:20,0.57,44
2020/03/17 18:21,0.58,45
2020/03/17 18:22,0.60,46
2020/03/17 18:23,0.60,46
2020/03/17 18:24,0.60,46
2020/03/17 18:25,0.60,46
2020/03/17 18:26,0.61,47
2020/03/17 18:27,0.61,47
2020/03/17 18:28,0.62,48
2020/03/17 18:29,0.66,51
2020/03/17 18:30,0.70,54
2020/03/17 18:31,0.72,56
2020/03/17 18:32,0.75,58
2020/03/17 18:33,0.76,59
2020/03/17 18:34,0.80,62
2020/03/17 18:35,0.82,63
2020/03/17 18:36,0.84,65
2020/03/17 18:37,0.88,68
2020/03/17 18:38,0.92,71
2020/03/17 18:39,0.93,72
2020/03/17 18:40,0.96,74
2020/03/17 18:41,1.00,77
2020/03/17 18:42,1.02,79
2020/03/17 18:43,1.05,81
2020/03/17 18:44,1.04,80
2020/03/17 18:45,1.02,79
2020/03/17 18:46,1.01,78
2020/03/17 18:47,1.02,79
2020/03/17 18:48,1.05,81
2020/03/17 18:49,1.07,83
2020/03/17 18:50,1.11,86
2020/03/17 18:51,1.11,86
2020/03/17 18:52,1.10,85
2020/03/17 18:53,1.10,85
2020/03/17 18:54,1.11,86
2020/03/17 18:55,1.14,88
2020/03/17 18:56,1.18,91
2020/03/17 18:57,1.22,94
2020/03/17 18:58,1.26,97
2020/03/17 18:59,1.28,99
2020/03/17 19:00,1.32,102
2020/03/17 19:01,1.36,105
2020/03/17 19:02,1.40,108
2020/03/17 19:03,1.46,113
2020/03/17 19:04,1.53,118
2020/03/17 19:05,1.58,122
2020/03/17 19:06,1.60,124
2020/03/17 19:07,1.64,127
2020/03/17 19:08,1.68,130
2020/03/17 19:09,1.71,132
2020/03/17 19:10,1.75,135
2020/03/17 19:11,1.80,139
2020/03/17 19:12,1.85,143
2020/03/17 19:13,1.92,148
2020/03/17 19:14,1.97,152
2020/03/17 19:15,2.02,156
2020/03/17 19:16,2.07,160
2020/03/17 19:17,2.15,166
2020/03/17 19:18,2.23,172
2020/03/17 19:19,2.29,177
2020/03/17 19:20,2.37,183
2020/03/17 19:21,2.43,188
2020/03/17 19:22,2.48,192
2020/03/17 19:23,2.54,196
2020/03/17 19:24,2.59,200
2020/03/17 19:25,2.67,206
2020/03/17 19:26,2.73,211
2020/03/17 19:27,2.81,217
2020/03/17 19:28,2.87,222
2020/03/17 19:29,2.94,227
2020/03/17 19:30,2.99,231
2020/03/17 19:31,3.04,235
2020/03/17 19:32,3.07,237
2020/03/17 19:33,3.11,240
2020/03/17 19:34,3.12,241
2020/03/17 19:35,3.14,243
2020/03/17 19:36,3.16,244
2020/03/17 19:37,3.18,246
2020/03/17 19:38,3.20,247
2020/03/17 19:39,3.21,248
2020/03/17 19:40,3.22,249
2020/03/17 19:41,3.24,250
2020/03/17 19:42,3.25,251
2020/03/17 19:43,3.26,252
2020/03/17 19:44,3.26,252
2020/03/17 19:45,3.26,252
2020/03/17 19:46,3.27,253
2020/03/17 19:47,3.27,253
2020/03/17 19:48,3.29,254
2020/03/17 19:49,3.29,254
2020/03/17 19:50,3.29,254
2020/03/17 19:51,3.29,254
2020/03/17 19:52,3.29,254
2020/03/17 19:53,3.30,255
2020/03/17 19:54,3.30,255
2020/03/17 19:55,3.30,255
2020/03/17 19:56,3.30,255
2020/03/17 19:57,3.30,255
2020/03/17 19:58,3.30,255
2020/03/17 19:59,3.30,255
2020/03/17 20:00,3.30,255
2020/03/17 20:01,3.30,255
2020/03/17 20:02,3.30,255
2020/03/17 20:03,3.30,255
2020/03/17 20:04,3.30,255
2020/03/17 20:05,3.30,255
2020/03/17 20:06,3.30,255
2020/03/17 20:07,3.30,255
2020/03/17 20:08,3.30,255
2020/03/17 20:09,3.30,255
2020/03/17 20:10,3.30,255
2020/03/17 20:11,3.30,255
2020/03/17 20:12,3.30,255
2020/03/17 20:13,3.30,255
2020/03/17 20:14,3.30,255
2020/03/17 20:15,3.30,255
2020/03/17 20:16,3.30,255
2020/03/17 20:17,3.30,255
2020/03/17 20:18,3.30,255
2020/03/17 20:19,3.30,255
2020/03/17 20:20,3.30,255
2020/03/17 20:21,3.30,255
2020/03/17 20:22,3.30,255
2020/03/17 20:23,3.30,255
2020/03/17 20:24,3.30,255
2020/03/17 20:25,3.30,255
2020/03/17 20:26,3.30,255
2020/03/17 20:27,3.30,255
2020/03/17 20:28,3.30,255
2020/03/17 20:29,3.30,255
2020/03/17 20:30,3.30,255
2020/03/17 20:31,3.30,255
2020/03/17 20:32,3.30,255
2020/03/17 20:33,3.30,255
2020/03/17 20:34,3.30,255
2020/03/17 20:35,3.30,255
2020/03/17 20:36,3.30,255
2020/03/17 20:37,3.30,255
2020/03/17 20:38,3.30,255
2020/03/17 20:39,3.30,255
2020/03/17 20:40,3.30,255
2020/03/17 20:41,3.30,255
2020/03/17 20:42,3.30,255
2020/03/17 20:43,3.30,255
2020/03/17 20:44,3.30,255
2020/03/17 20:45,3.30,255
2020/03/17 20:46,3.30,255
2020/03/17 20:47,3.30,255
2020/03/17 20:48,3.30,255
2020/03/17 20:49,3.30,255
2020/03/17 20:50,3.30,255
2020/03/17 20:51,3.30,255
2020/03/17 20:52,3.30,255
2020/03/17 20:53,3.30,255
2020/03/17 20:54,3.30,255
2020/03/17 20:55,3.30,255
2020/03/17 20:56,3.30,255
2020/03/17 20:57,3.30,255
2020/03/17 20:58,3.30,255
2020/03/17 20:59,3.30,255
2020/03/17 21:00,3.30,255
2020/03/17 21:01,3.30,255
2020/03/17 21:02,3.30,255
2020/03/17 21:03,3.30,255
2020/03/17 21:04,3.30,255
2020/03/17 21:05,3.30,255
2020/03/17 21:06,3.30,255
2020/03/17 21:07,3.30,255
2020/03/17 21:08,3.30,255
2020/03/17 21:09,3.30,255
2020/03/17 21:10,3.30,255
2020/03/17 21:11,3.30,255
2020/03/17 21:12,3.30,255
2020/03/17 21:13,3.30,255
2020/03/17 21:14,3.30,255
2020/03/17 21:15,3.30,255
2020/03/17 21:16,3.30,255
2020/03/17 21:17,3.30,255
2020/03/17 21:18,3.30,255
2020/03/17 21:19,3.30,255
2020/03/17 21:20,3.30,255
2020/03/17 21:21,3.30,255
2020/03/17 21:22,3.30,255
2020/03/17 21:23,3.30,255
2020/03/17 21:24,3.30,255
2020/03/17 21:25,3.30,255
2020/03/17 21:26,3.30,255
2020/03/17 21:27,3.30,255
2020/03/17 21:28,3.30,255
2020/03/17 21:29,3.30,255
2020/03/17 21:30,3.30,255
2020/03/17 21:31,3.30,255
2020/03/17 21:32,3.30,255
2020/03/17 21:33,3.30,255
2020/03/17 21:34,3.30,255
2020/03/17 21:35,3.30,255
2020/03/17 21:36,3.30,255
2020/03/17 21:37,3.30,255
2020/03/17 21:38,3.30,255
2020/03/17 21:39,3.30,255
2020/03/17 21:40,3.30,255
2020/03/17 21:41,3.30,255
2020/03/17 21:42,3.30,255
2020/03/17 21:43,3.30,255
2020/03/17 21:44,3.30,255
2020/03/17 21:45,3.30,255
2020/03/17 21:46,3.30,255
2020/03/17 21:47,3.30,255
2020/03/17 21:48,3.30,255
2020/03/17 21:49,3.30,255
2020/03/17 21:50,3.30,255
2020/03/17 21:51,3.30,255
2020/03/17 21:52,3.30,255
2020/03/17 21:53,3.30,255
2020/03/17 21:54,3.30,255
2020/03/17 21:55,3.30,255
2020/03/17 21:56,3.30,255
2020/03/17 21:57,3.30,255
2020/03/17 21:58,3.30,255
2020/03/17 21:59,3.30,255
2020/03/17 22:00,3.30,255
2020/03/17 22:01,3.30,255
2020/03/17 22:02,3.30,255
2020/03/17 22:03,3.30,255
2020/03/17 22:04,3.30,255
2020/03/17 22:05,3.30,255
2020/03/17 22:06,3.30,255
2020/03/17 22:07,3.30,255
2020/03/17 22:08,3.30,255
2020/03/17 22:09,3.30,255
2020/03/17 22:10,3.30,255
2020/03/17 22:11,3.30,255
2020/03/17 22:12,3.30,255
2020/03/17 22:13,3.30,255
2020/03/17 22:14,3.30,255
2020/03/17 22:15,3.30,255
2020/03/17 22:16,3.30,255
2020/03/17 22:17,3.30,255
2020/03/17 22:18,3.30,255
2020/03/17 22:19,3.30,255
2020/03/17 22:20,3.30,255
2020/03/17 22:21,3.30,255
2020/03/17 22:22,3.30,255
2020/03/17 22:23,3.30,255
2020/03/17 22:24,3.30,255
2020/03/17 22:25,3.30,255
2020/03/17 22:26,3.30,255
2020/03/17 22:27,3.30,255
2020/03/17 22:28,3.30,255
2020/03/17 22:29,3.30,255
2020/03/17 22:30,3.30,255
2020/03/17 22:31,3.30,255
2020/03/17 22:32,3.30,255
2020/03/17 22:33,3.30,255
2020/03/17 22:34,3.30,255
2020/03/17 22:35,3.30,255
2020/03/17 22:36,3.30,255
2020/03/17 22:37,3.30,255
2020/03/17 22:38,3.30,255
2020/03/17 22:39,3.30,255
2020/03/17 22:40,3.30,255
2020/03/17 22:41,3.30,255
2020/03/17 22:42,3.30,255
2020/03/17 22:43,3.30,255
2020/03/17 22:44,3.30,255
2020/03/17 22:45,3.30,255
2020/03/17 22:46,3.30,255
2020/03/17 22:47,3.30,255
2020/03/17 22:48,3.30,255
2020/03/17 22:49,3.30,255
2020/03/17 22:50,3.30,255
2020/03/17 22:51,3.30,255
2020/03/17 22:52,3.30,255
2020/03/17 22:53,3.30,255
2020/03/17 22:54,3.30,255
2020/03/17 22:55,3.30,255
2020/03/17 22:56,3.30,255
2020/03/17 22:57,3.30,255
2020/03/17 22:58,3.30,255
2020/03/17 22:59,3.30,255
2020/03/17 23:00,3.30,255
2020/03/17 23:01,3.30,255
2020/03/17 23:02,3.30,255
2020/03/17 23:03,3.30,255
2020/03/17 23:04,3.30,255
2020/03/17 23:05,3.30,255
2020/03/17 23:06,3.30,255
2020/03/17 23:07,3.30,255
2020/03/17 23:08,3.30,255
2020/03/17 23:09,3.30,255
2020/03/17 23:10,3.30,255
2020/03/17 23:11,3.30,255
2020/03/17 23:12,3.30,255
2020/03/17 23:13,3.30,255
2020/03/17 23:14,3.30,255
2020/03/17 23:15,3.30,255
2020/03/17 23:16,3.30,255
2020/03/17 23:17,3.30,255
2020/03/17 23:18,3.30,255
2020/03/17 23:19,3.30,255
2020/03/17 23:20,3.30,255
2020/03/17 23:21,3.30,255
2020/03/17 23:22,3.30,255
2020/03/17 23:23,3.30,255
2020/03/17 23:24,3.30,255
2020/03/17 23:25,3.30,255
2020/03/17 23:26,3.30,255
2020/03/17 23:27,3.30,255
2020/03/17 23:28,3.30,255
2020/03/17 23:29,3.30,255
2020/03/17 23:30,3.30,255
2020/03/17 23:31,3.30,255
2020/03/17 23:32,3.30,255
2020/03/17 23:33,3.30,255
2020/03/17 23:34,3.30,255
2020/03/17 23:35,3.30,255
2020/03/17 23:36,3.30,255
2020/03/17 23:37,3.30,255
2020/03/17 23:38,3.30,255
2020/03/17 23:39,3.30,255
2020/03/17 23:40,3.30,255
2020/03/17 23:41,3.30,255
2020/03/17 23:42,3.30,255
2020/03/17 23:43,3.30,255
2020/03/17 23:44,3.30,255
2020/03/17 23:45,3.30,255
2020/03/17 23:46,3.30,255
2020/03/17 23:47,3.30,255
2020/03/17 23:48,3.30,255
2020/03/17 23:49,3.30,255
2020/03/17 23:50,3.30,255
2020/03/17 23:51,3.30,255
2020/03/17 23:52,3.30,255
2020/03/17 23:53,3.30,255
2020/03/17 23:54,3.30,255
2020/03/17 23:55,3.30,255
2020/03/17 23:56,3.30,255
2020/03/17 23:57,3.30,255
2020/03/17 23:58,3.30,255
2020/03/17 23:59,3.30,255
2020/03/18 00:00,3.30,255
2020/03/18 00:01,3.30,255
2020/03/18 00:02,3.30,255
2020/03/18 00:03,3.30,255
2020/03/18 00:04,3.30,255
2020/03/18 00:05,3.30,255
2020/03/18 00:06,3.30,255
2020/03/18 00:07,3.30,255
2020/03/18 00:08,3.30,255
2020/03/18 00:09,3.30,255
2020/03/18 00:10,3.30,255
2020/03/18 00:11,3.30,255
2020/03/18 00:12,3.30,255
2020/03/18 00:13,3.30,255
2020/03/18 00:14,3.30,255
2020/03/18 00:15,3.30,255
2020/03/18 00:16,3.30,255
2020/03/18 00:17,3.30,255
2020/03/18 00:18,3.30,255
2020/03/18 00:19,3.30,255
2020/03/18 00:20,3.30,255
2020/03/18 00:21,3.30,255
2020/03/18 00:22,3.30,255
2020/03/18 00:23,3.30,255
2020/03/18 00:24,3.30,255
2020/03/18 00:25,3.30,255
2020/03/18 00:26,3.30,255
2020/03/18 00:27,3.30,255
2020/03/18 00:28,3.30,255
2020/03/18 00:29,3.30,255
2020/03/18 00:30,3.30,255
2020/03/18 00:31,3.30,255
2020/03/18 00:32,3.30,255
2020/03/18 00:33,3.30,255
2020/03/18 00:34,3.30,255
2020/03/18 00:35,3.30,255
2020/03/18 00:36,3.30,255
2020/03/18 00:37,3.30,255
2020/03/18 00:38,3.30,255
2020/03/18 00:39,3.30,255
2020/03/18 00:40,3.30,255
2020/03/18 00:41,3.30,255
2020/03/18 00:42,3.30,255
2020/03/18 00:43,3.30,255
2020/03/18 00:44,3.30,255
2020/03/18 00:45,3.30,255
2020/03/18 00:46,3.30,255
2020/03/18 00:47,3.30,255
2020/03/18 00:48,3.30,255
2020/03/18 00:49,3.30,255
2020/03/18 00:50,3.30,255
2020/03/18 00:51,3.30,255
2020/03/18 00:52,3.30,255
2020/03/18 00:53,3.30,255
2020/03/18 00:54,3.30,255
2020/03/18 00:55,3.30,255
2020/03/18 00:56,3.30,255
2020/03/18 00:57,3.30,255
2020/03/18 00:58,3.30,255
2020/03/18 00:59,3.30,255
2020/03/18 01:00,3.30,255
2020/03/18 01:01,3.30,255
2020/03/18 01:02,3.30,255
2020/03/18 01:03,3.30,255
2020/03/18 01:04,3.29,254
2020/03/18 01:05,3.30,255
2020/03/18 01:06,3.30,255
2020/03/18 01:07,3.29,254
2020/03/18 01:08,3.29,254
2020/03/18 01:09,3.30,255
2020/03/18 01:10,3.30,255
2020/03/18 01:11,3.30,255
2020/03/18 01:12,3.30,255
2020/03/18 01:13,3.30,255
2020/03/18 01:14,3.30,255
2020/03/18 01:15,3.30,255
2020/03/18 01:16,3.30,255
2020/03/18 01:17,3.30,255
2020/03/18 01:18,3.30,255
2020/03/18 01:19,3.30,255
2020/03/18 01:20,3.30,255
2020/03/18 01:21,3.30,255
2020/03/18 01:22,3.30,255
2020/03/18 01:23,3.30,255
2020/03/18 01:24,3.30,255
2020/03/18 01:25,3.30,255
2020/03/18 01:26,3.30,255
2020/03/18 01:27,3.30,255
2020/03/18 01:28,3.30,255
2020/03/18 01:29,3.30,255
2020/03/18 01:30,3.30,255
2020/03/18 01:31,3.30,255
2020/03/18 01:32,3.30,255
2020/03/18 01:33,3.30,255
2020/03/18 01:34,3.30,255
2020/03/18 01:35,3.30,255
2020/03/18 01:36,3.30,255
2020/03/18 01:37,3.30,255
2020/03/18 01:38,3.30,255
2020/03/18 01:39,3.30,255
2020/03/18 01:40,3.30,255
2020/03/18 01:41,3.30,255
2020/03/18 01:42,3.30,255
2020/03/18 01:43,3.30,255
2020/03/18 01:44,3.30,255
2020/03/18 01:45,3.30,255
2020/03/18 01:46,3.30,255
2020/03/18 01:47,3.30,255
2020/03/18 01:48,3.30,255
2020/03/18 01:49,3.30,255
2020/03/18 01:50,3.30,255
2020/03/18 01:51,3.30,255
2020/03/18 01:52,3.30,255
2020/03/18 01:53,3.30,255
2020/03/18 01:54,3.30,255
2020/03/18 01:55,3.30,255
2020/03/18 01:56,3.30,255
2020/03/18 01:57,3.30,255
2020/03/18 01:58,3.30,255
2020/03/18 01:59,3.30,255
2020/03/18 02:00,3.30,255
2020/03/18 02:01,3.30,255
2020/03/18 02:02,3.30,255
2020/03/18 02:03,3.30,255
2020/03/18 02:04,3.30,255
2020/03/18 02:05,3.30,255
2020/03/18 02:06,3.30,255
2020/03/18 02:07,3.30,255
2020/03/18 02:08,3.30,255
2020/03/18 02:09,3.30,255
2020/03/18 02:10,3.30,255
2020/03/18 02:11,3.30,255
2020/03/18 02:12,3.30,255
2020/03/18 02:13,3.30,255
2020/03/18 02:14,3.30,255
2020/03/18 02:15,3.30,255
2020/03/18 02:16,3.30,255
2020/03/18 02:17,3.30,255
2020/03/18 02:18,3.30,255
2020/03/18 02:19,3.30,255
2020/03/18 02:20,3.30,255
2020/03/18 02:21,3.30,255
2020/03/18 02:22,3.30,255
2020/03/18 02:23,3.30,255
2020/03/18 02:24,3.30,255
2020/03/18 02:25,3.30,255
2020/03/18 02:26,3.30,255
2020/03/18 02:27,3.30,255
2020/03/18 02:28,3.30,255
2020/03/18 02:29,3.30,255
2020/03/18 02:30,3.30,255
2020/03/18 02:31,3.30,255
2020/03/18 02:32,3.30,255
2020/03/18 02:33,3.30,255
2020/03/18 02:34,3.30,255
2020/03/18 02:35,3.30,255
2020/03/18 02:36,3.30,255
2020/03/18 02:37,3.30,255
2020/03/18 02:38,3.30,255
2020/03/18 02:39,3.30,255
2020/03/18 02:40,3.30,255
2020/03/18 02:41,3.30,255
2020/03/18 02:42,3.30,255
2020/03/18 02:43,3.30,255
2020/03/18 02:44,3.30,255
2020/03/18 02:45,3.30,255
2020/03/18 02:46,3.30,255
2020/03/18 02:47,3.30,255
2020/03/18 02:48,3.30,255
2020/03/18 02:49,3.30,255
2020/03/18 02:50,3.30,255
2020/03/18 02:51,3.30,255
2020/03/18 02:52,3.30,255
2020/03/18 02:53,3.30,255
2020/03/18 02:54,3.30,255
2020/03/18 02:55,3.30,255
2020/03/18 02:56,3.30,255
2020/03/18 02:57,3.30,255
2020/03/18 02:58,3.30,255
2020/03/18 02:59,3.30,255
2020/03/18 03:00,3.30,255
2020/03/18 03:01,3.30,255
2020/03/18 03:02,3.30,255
2020/03/18 03:03,3.30,255
2020/03/18 03:04,3.30,255
2020/03/18 03:05,3.30,255
2020/03/18 03:06,3.30,255
2020/03/18 03:07,3.30,255
2020/03/18 03:08,3.30,255
2020/03/18 03:09,3.30,255
2020/03/18 03:10,3.30,255
2020/03/18 03:11,3.30,255
2020/03/18 03:12,3.30,255
2020/03/18 03:13,3.30,255
2020/03/18 03:14,3.30,255
2020/03/18 03:15,3.30,255
2020/03/18 03:16,3.30,255
2020/03/18 03:17,3.30,255
2020/03/18 03:18,3.30,255
2020/03/18 03:19,3.30,255
2020/03/18 03:20,3.30,255
2020/03/18 03:21,3.30,255
2020/03/18 03:22,3.30,255
2020/03/18 03:23,3.30,255
2020/03/18 03:24,3.30,255
2020/03/18 03:25,3.30,255
2020/03/18 03:26,3.30,255
2020/03/18 03:27,3.30,255
2020/03/18 03:28,3.30,255
2020/03/18 03:29,3.30,255
2020/03/18 03:30,3.30,255
2020/03/18 03:31,3.30,255
2020/03/18 03:32,3.30,255
2020/03/18 03:33,3.30,255
2020/03/18 03:34,3.30,255
2020/03/18 03:35,3.30,255
2020/03/18 03:36,3.30,255
2020/03/18 03:37,3.30,255
2020/03/18 03:38,3.30,255
2020/03/18 03:39,3.30,255
2020/03/18 03:40,3.30,255
2020/03/18 03:41,3.30,255
2020/03/18 03:42,3.30,255
2020/03/18 03:43,3.30,255
2020/03/18 03:44,3.30,255
2020/03/18 03:45,3.30,255
2020/03/18 03:46,3.30,255
2020/03/18 03:47,3.30,255
2020/03/18 03:48,3.30,255
2020/03/18 03:49,3.30,255
2020/03/18 03:50,3.30,255
2020/03/18 03:51,3.30,255
2020/03/18 03:52,3.30,255
2020/03/18 03:53,3.30,255
2020/03/18 03:54,3.30,255
2020/03/18 03:55,3.30,255
2020/03/18 03:56,3.30,255
2020/03/18 03:57,3.30,255
2020/03/18 03:58,3.30,255
2020/03/18 03:59,3.30,255
2020/03/18 04:00,3.30,255
2020/03/18 04:01,3.30,255
2020/03/18 04:02,3.30,255
2020/03/18 04:03,3.30,255
2020/03/18 04:04,3.30,255
2020/03/18 04:05,3.30,255
2020/03/18 04:06,3.30,255
2020/03/18 04:07,3.30,255
2020/03/18 04:08,3.30,255
2020/03/18 04:09,3.30,255
2020/03/18 04:10,3.30,255
2020/03/18 04:11,3.30,255
2020/03/18 04:12,3.30,255
2020/03/18 04:13,3.30,255
2020/03/18 04:14,3.30,255
2020/03/18 04:15,3.30,255
2020/03/18 04:16,3.30,255
2020/03/18 04:17,3.30,255
2020/03/18 04:18,3.30,255
2020/03/18 04:19,3.30,255
2020/03/18 04:20,3.30,255
2020/03/18 04:21,3.30,255
2020/03/18 04:22,3.30,255
2020/03/18 04:23,3.30,255
2020/03/18 04:24,3.30,255
2020/03/18 04:25,3.30,255
2020/03/18 04:26,3.30,255
2020/03/18 04:27,3.30,255
2020/03/18 04:28,3.30,255
2020/03/18 04:29,3.30,255
2020/03/18 04:30,3.30,255
2020/03/18 04:31,3.30,255
2020/03/18 04:32,3.30,255
2020/03/18 04:33,3.30,255
2020/03/18 04:34,3.30,255
2020/03/18 04:35,3.30,255
2020/03/18 04:36,3.30,255
2020/03/18 04:37,3.30,255
2020/03/18 04:38,3.30,255
2020/03/18 04:39,3.30,255
2020/03/18 04:40,3.30,255
2020/03/18 04:41,3.30,255
2020/03/18 04:42,3.30,255
2020/03/18 04:43,3.30,255
2020/03/18 04:44,3.30,255
2020/03/18 04:45,3.30,255
2020/03/18 04:46,3.30,255
2020/03/18 04:47,3.30,255
2020/03/18 04:48,3.30,255
2020/03/18 04:49,3.30,255
2020/03/18 04:50,3.30,255
2020/03/18 04:51,3.30,255
2020/03/18 04:52,3.30,255
2020/03/18 04:53,3.30,255
2020/03/18 04:54,3.30,255
2020/03/18 04:55,3.30,255
2020/03/18 04:56,3.30,255
2020/03/18 04:57,3.30,255
2020/03/18 04:58,3.30,255
2020/03/18 04:59,3.30,255
2020/03/18 05:00,3.30,255
2020/03/18 05:01,3.30,255
2020/03/18 05:02,3.30,255
2020/03/18 05:03,3.30,255
2020/03/18 05:04,3.30,255
2020/03/18 05:05,3.30,255
2020/03/18 05:06,3.30,255
2020/03/18 05:07,3.30,255
2020/03/18 05:08,3.30,255
2020/03/18 05:09,3.30,255
2020/03/18 05:10,3.30,255
2020/03/18 05:11,3.30,255
2020/03/18 05:12,3.30,255
2020/03/18 05:13,3.30,255
2020/03/18 05:14,3.30,255
2020/03/18 05:15,3.30,255
2020/03/18 05:16,3.30,255
2020/03/18 05:17,3.30,255
2020/03/18 05:18,3.30,255
2020/03/18 05:19,3.30,255
2020/03/18 05:20,3.30,255
2020/03/18 05:21,3.30,255
2020/03/18 05:22,3.30,255
2020/03/18 05:23,3.30,255
2020/03/18 05:24,3.30,255
2020/03/18 05:25,3.30,255
2020/03/18 05:26,3.30,255
2020/03/18 05:27,3.30,255
2020/03/18 05:28,3.30,255
2020/03/18 05:29,3.30,255
2020/03/18 05:30,3.30,255
2020/03/18 05:31,3.30,255
2020/03/18 05:32,3.30,255
2020/03/18 05:33,3.30,255
2020/03/18 05:34,3.30,255
2020/03/18 05:35,3.30,255
2020/03/18 05:36,3.30,255
2020/03/18 05:37,3.30,255
2020/03/18 05:38,3.30,255
2020/03/18 05:39,3.30,255
2020/03/18 05:40,3.30,255
2020/03/18 05:41,3.30,255
2020/03/18 05:42,3.30,255
2020/03/18 05:43,3.30,255
2020/03/18 05:44,3.30,255
2020/03/18 05:45,3.30,255
2020/03/18 05:46,3.30,255
2020/03/18 05:47,3.30,255
2020/03/18 05:48,3.30,255
2020/03/18 05:49,3.30,255
2020/03/18 05:50,3.30,255
2020/03/18 05:51,3.30,255
2020/03/18 05:52,3.30,255
2020/03/18 05:53,3.30,255
2020/03/18 05:54,3.30,255
2020/03/18 05:55,3.30,255
2020/03/18 05:56,3.30,255
2020/03/18 05:57,3.30,255
2020/03/18 05:58,3.30,255
2020/03/18 05:59,3.30,255
2020/03/18 06:00,3.30,255
2020/03/18 06:01,3.30,255
2020/03/18 06:02,3.30,255
2020/03/18 06:03,3.30,255
2020/03/18 06:04,3.30,255
2020/03/18 06:05,3.30,255
2020/03/18 06:06,3.30,255
2020/03/18 06:07,3.30,255
2020/03/18 06:08,3.30,255
2020/03/18 06:09,3.30,255
2020/03/18 06:10,3.30,255
2020/03/18 06:11,3.30,255
2020/03/18 06:12,3.30,255
2020/03/18 06:13,3.30,255
2020/03/18 06:14,3.30,255
2020/03/18 06:15,3.30,255
2020/03/18 06:16,3.30,255
2020/03/18 06:17,3.30,255
2020/03/18 06:18,3.30,255
2020/03/18 06:19,3.30,255
2020/03/18 06:20,3.30,255
2020/03/18 06:21,3.30,255
2020/03/18 06:22,3.30,255
2020/03/18 06:23,3.30,255
2020/03/18 06:24,3.29,254
2020/03/18 06:25,3.30,255
2020/03/18 06:26,3.30,255
2020/03/18 06:27,3.30,255
2020/03/18 06:28,3.30,255
2020/03/18 06:29,3.30,255
2020/03/18 06:30,3.29,254
2020/03/18 06:31,3.30,255
2020/03/18 06:32,3.30,255
2020/03/18 06:33,3.29,254
2020/03/18 06:34,3.30,255
2020/03/18 06:35,3.29,254
2020/03/18 06:36,3.30,255
2020/03/18 06:37,3.29,254
2020/03/18 06:38,3.30,255
2020/03/18 06:39,3.29,254
2020/03/18 06:40,3.29,254
2020/03/18 06:41,3.29,254
2020/03/18 06:42,3.29,254
2020/03/18 06:43,3.29,254
2020/03/18 06:44,3.29,254
2020/03/18 06:45,3.29,254
2020/03/18 06:46,3.29,254
2020/03/18 06:47,3.29,254
2020/03/18 06:48,3.29,254
2020/03/18 06:49,3.29,254
2020/03/18 06:50,3.29,254
2020/03/18 06:51,3.29,254
2020/03/18 06:52,3.29,254
2020/03/18 06:53,3.29,254
2020/03/18 06:54,3.29,254
2020/03/18 06:55,3.27,253
2020/03/18 06:56,3.27,253
2020/03/18 06:57,3.26,252
2020/03/18 06:58,3.26,252
2020/03/18 06:59,3.26,252
2020/03/18 07:00,3.25,251
2020/03/18 07:01,3.24,250
2020/03/18 07:02,3.22,249
2020/03/18 07:03,3.21,248
2020/03/18 07:04,3.20,247
2020/03/18 07:05,3.18,246
2020/03/18 07:06,3.16,244
2020/03/18 07:07,3.14,243
2020/03/18 07:08,3.12,241
2020/03/18 07:09,3.09,239
2020/03/18 07:10,3.05,236
2020/03/18 07:11,3.02,233
2020/03/18 07:12,2.99,231
2020/03/18 07:13,2.96,229
2020/03/18 07:14,2.94,227
2020/03/18 07:15,2.91,225
2020/03/18 07:16,2.89,223
2020/03/18 07:17,2.85,220
2020/03/18 07:18,2.80,216
2020/03/18 07:19,2.80,216
2020/03/18 07:20,2.74,212
2020/03/18 07:21,2.69,208
2020/03/18 07:22,2.65,205
2020/03/18 07:23,2.61,202
2020/03/18 07:24,2.58,199
2020/03/18 07:25,2.55,197
2020/03/18 07:26,2.51,194
2020/03/18 07:27,2.48,192
2020/03/18 07:28,2.46,190
2020/03/18 07:29,2.48,192
2020/03/18 07:30,2.50,193
2020/03/18 07:31,2.46,190
2020/03/18 07:32,2.42,187
2020/03/18 07:33,2.43,188
2020/03/18 07:34,2.41,186
2020/03/18 07:35,2.37,183
2020/03/18 07:36,2.37,183
2020/03/18 07:37,2.33,180
2020/03/18 07:38,2.30,178
2020/03/18 07:39,2.25,174
2020/03/18 07:40,2.25,174
2020/03/18 07:41,2.23,172
2020/03/18 07:42,2.21,171
2020/03/18 07:43,2.19,169
2020/03/18 07:44,2.14,165
2020/03/18 07:45,2.08,161
2020/03/18 07:46,2.04,158
2020/03/18 07:47,1.98,153
2020/03/18 07:48,1.93,149
2020/03/18 07:49,1.85,143
2020/03/18 07:50,1.75,135
2020/03/18 07:51,1.71,132
2020/03/18 07:52,1.70,131
2020/03/18 07:53,1.68,130
2020/03/18 07:54,1.70,131
2020/03/18 07:55,1.75,135
2020/03/18 07:56,1.81,140
2020/03/18 07:57,1.76,136
2020/03/18 07:58,1.71,132
2020/03/18 07:59,1.66,128
2020/03/18 08:00,1.58,122
2020/03/18 08:01,1.49,115
2020/03/18 08:02,1.42,110
2020/03/18 08:03,1.40,108
2020/03/18 08:04,1.35,104
2020/03/18 08:05,1.35,104
2020/03/18 08:06,1.42,110
2020/03/18 08:07,1.33,103
2020/03/18 08:08,1.26,97
2020/03/18 08:09,1.26,97
2020/03/18 08:10,1.24,96
2020/03/18 08:11,1.26,97
2020/03/18 08:12,1.22,94
2020/03/18 08:13,1.18,91
2020/03/18 08:14,1.15,89
2020/03/18 08:15,1.14,88
2020/03/18 08:16,1.07,83
2020/03/18 08:17,1.06,82
2020/03/18 08:18,1.13,87
2020/03/18 08:19,1.10,85
2020/03/18 08:20,1.07,83
2020/03/18 08:21,1.07,83
2020/03/18 08:22,1.07,83
2020/03/18 08:23,1.07,83
2020/03/18 08:24,1.10,85
2020/03/18 08:25,1.07,83
2020/03/18 08:26,1.04,80
2020/03/18 08:27,1.04,80
2020/03/18 08:28,1.02,79
2020/03/18 08:29,1.01,78
2020/03/18 08:30,1.01,78
2020/03/18 08:31,1.00,77
2020/03/18 08:32,0.98,76
2020/03/18 08:33,0.94,73
2020/03/18 08:34,0.96,74
2020/03/18 08:35,0.94,73
2020/03/18 08:36,0.93,72
2020/03/18 08:37,0.93,72
2020/03/18 08:38,0.92,71
2020/03/18 08:39,0.91,70
2020/03/18 08:40,0.89,69
2020/03/18 08:41,0.88,68
2020/03/18 08:42,0.88,68
2020/03/18 08:43,0.87,67
2020/03/18 08:44,0.83,64
2020/03/18 08:45,0.82,63
2020/03/18 08:46,0.79,61
2020/03/18 08:47,0.79,61
2020/03/18 08:48,0.78,60
2020/03/18 08:49,0.75,58
2020/03/18 08:50,0.74,57
2020/03/18 08:51,0.72,56
2020/03/18 08:52,0.72,56
2020/03/18 08:53,0.72,56
2020/03/18 08:54,0.72,56
2020/03/18 08:55,0.71,55
2020/03/18 08:56,0.72,56
2020/03/18 08:57,0.72,56
2020/03/18 08:58,0.71,55
2020/03/18 08:59,0.72,56
2020/03/18 09:00,0.72,56
2020/03/18 09:01,0.70,54
2020/03/18 09:02,0.70,54
2020/03/18 09:03,0.70,54
2020/03/18 09:04,0.71,55
2020/03/18 09:05,0.70,54
2020/03/18 09:06,0.71,55
2020/03/18 09:07,0.71,55
2020/03/18 09:08,0.72,56
2020/03/18 09:09,0.72,56
2020/03/18 09:10,0.72,56
2020/03/18 09:11,0.71,55
2020/03/18 09:12,0.71,55
2020/03/18 09:13,0.70,54
2020/03/18 09:14,0.70,54
2020/03/18 09:15,0.71,55
2020/03/18 09:16,0.70,54
2020/03/18 09:17,0.69,53
2020/03/18 09:18,0.70,54
2020/03/18 09:19,0.66,51
2020/03/18 09:20,0.66,51
2020/03/18 09:21,0.66,51
2020/03/18 09:22,0.65,50
2020/03/18 09:23,0.66,51
2020/03/18 09:24,0.66,51
2020/03/18 09:25,0.63,49
2020/03/18 09:26,0.66,51
2020/03/18 09:27,0.65,50
2020/03/18 09:28,0.66,51
2020/03/18 09:29,0.67,52
2020/03/18 09:30,0.67,52
2020/03/18 09:31,0.66,51
2020/03/18 09:32,0.66,51
2020/03/18 09:33,0.69,53
2020/03/18 09:34,0.69,53
2020/03/18 09:35,0.70,54
2020/03/18 09:36,0.66,51
2020/03/18 09:37,0.66,51
2020/03/18 09:38,0.63,49
2020/03/18 09:39,0.65,50
2020/03/18 09:40,0.65,50
2020/03/18 09:41,0.65,50
2020/03/18 09:42,0.63,49
2020/03/18 09:43,0.65,50
2020/03/18 09:44,0.66,51
2020/03/18 09:45,0.67,52
2020/03/18 09:46,0.67,52
2020/03/18 09:47,0.66,51
2020/03/18 09:48,0.67,52
2020/03/18 09:49,0.66,51
2020/03/18 09:50,0.65,50
2020/03/18 09:51,0.66,51
2020/03/18 09:52,0.66,51
2020/03/18 09:53,0.66,51
2020/03/18 09:54,0.66,51
2020/03/18 09:55,0.63,49
2020/03/18 09:56,0.65,50
2020/03/18 09:57,0.63,49
2020/03/18 09:58,0.63,49
2020/03/18 09:59,0.63,49
2020/03/18 10:00,0.63,49
2020/03/18 10:01,0.62,48
2020/03/18 10:02,0.61,47
2020/03/18 10:03,0.60,46
2020/03/18 10:04,0.58,45
2020/03/18 10:05,0.58,45
2020/03/18 10:06,0.58,45
2020/03/18 10:07,0.60,46
2020/03/18 10:08,0.57,44
2020/03/18 10:09,0.58,45
2020/03/18 10:10,0.56,43
2020/03/18 10:11,0.54,42
2020/03/18 10:12,0.57,44
2020/03/18 10:13,0.56,43
2020/03/18 10:14,0.57,44
2020/03/18 10:15,0.57,44
2020/03/18 10:16,0.53,41
2020/03/18 10:17,0.52,40
2020/03/18 10:18,0.53,41
2020/03/18 10:19,0.54,42
2020/03/18 10:20,0.54,42
2020/03/18 10:21,0.56,43
2020/03/18 10:22,0.53,41
2020/03/18 10:23,0.52,40
2020/03/18 10:24,0.50,39
2020/03/18 10:25,0.49,38
2020/03/18 10:26,0.49,38
2020/03/18 10:27,0.50,39
2020/03/18 10:28,0.49,38
2020/03/18 10:29,0.52,40
2020/03/18 10:30,0.52,40
2020/03/18 10:31,0.50,39
2020/03/18 10:32,0.50,39
2020/03/18 10:33,0.52,40
2020/03/18 10:34,0.52,40
2020/03/18 10:35,0.53,41
2020/03/18 10:36,0.49,38
2020/03/18 10:37,0.47,36
2020/03/18 10:38,0.49,38
2020/03/18 10:39,0.50,39
2020/03/18 10:40,0.50,39
2020/03/18 10:41,0.49,38
2020/03/18 10:42,0.50,39
2020/03/18 10:43,0.50,39
2020/03/18 10:44,0.50,39
2020/03/18 10:45,0.50,39
2020/03/18 10:46,0.44,34
2020/03/18 10:47,0.44,34
2020/03/18 10:48,0.45,35
2020/03/18 10:49,0.47,36
2020/03/18 10:50,0.47,36
2020/03/18 10:51,0.45,35
2020/03/18 10:52,0.44,34
2020/03/18 10:53,0.45,35
2020/03/18 10:54,0.45,35
2020/03/18 10:55,0.43,33
2020/03/18 10:56,0.44,34
2020/03/18 10:57,0.43,33
2020/03/18 10:58,0.43,33
2020/03/18 10:59,0.41,32
2020/03/18 11:00,0.40,31
2020/03/18 11:01,0.41,32
2020/03/18 11:02,0.43,33
2020/03/18 11:03,0.41,32
2020/03/18 11:04,0.41,32
2020/03/18 11:05,0.40,31
2020/03/18 11:06,0.43,33
2020/03/18 11:07,0.41,32
2020/03/18 11:08,0.41,32
2020/03/18 11:09,0.41,32
2020/03/18 11:10,0.39,30
2020/03/18 11:11,0.40,31
2020/03/18 11:12,0.36,28
2020/03/18 11:13,0.38,29
2020/03/18 11:14,0.39,30
2020/03/18 11:15,0.36,28
2020/03/18 11:16,0.35,27
2020/03/18 11:17,0.35,27
2020/03/18 11:18,0.35,27
2020/03/18 11:19,0.35,27
2020/03/18 11:20,0.34,26
2020/03/18 11:21,0.35,27
2020/03/18 11:22,0.34,26
2020/03/18 11:23,0.35,27
2020/03/18 11:24,0.32,25
2020/03/18 11:18,0.56,43
2020/03/18 11:19,0.56,43
2020/03/18 11:20,0.56,43
2020/03/18 11:21,0.56,43
2020/03/18 11:22,0.57,44
2020/03/18 11:23,0.53,41
2020/03/18 11:24,0.54,42
2020/03/18 11:25,0.56,43
2020/03/18 11:26,0.56,43
2020/03/18 11:36,0.54,42
2020/03/18 11:37,0.54,42
2020/03/18 11:38,0.54,42
2020/03/18 11:39,0.54,42
2020/03/18 11:40,0.56,43
2020/03/18 11:41,0.56,43
2020/03/18 11:42,0.54,42
2020/03/18 11:43,0.54,42
2020/03/18 11:44,0.54,42
2020/03/18 11:45,0.54,42
2020/03/18 11:46,0.53,41
2020/03/18 11:47,0.54,42
2020/03/18 11:48,0.53,41
2020/03/18 11:49,0.53,41
2020/03/18 11:50,0.56,43
2020/03/18 11:51,0.56,43
2020/03/18 11:52,0.56,43
2020/03/18 11:53,0.54,42
2020/03/18 11:54,0.54,42
2020/03/18 11:55,0.56,43
2020/03/18 11:56,0.57,44
2020/03/18 11:57,0.57,44
2020/03/18 11:58,0.56,43
2020/03/18 11:59,0.53,41
2020/03/18 12:00,0.54,42
2020/03/18 12:01,0.60,46
2020/03/18 12:02,0.56,43
2020/03/18 12:03,0.53,41
2020/03/18 12:04,0.53,41
2020/03/18 12:05,0.53,41
2020/03/18 12:06,0.53,41
2020/03/18 12:07,0.53,41
2020/03/18 12:08,0.53,41
2020/03/18 12:09,0.53,41
2020/03/18 12:10,0.53,41
2020/03/18 12:11,0.53,41
2020/03/18 12:12,0.53,41
2020/03/18 12:13,0.53,41
2020/03/18 12:14,0.53,41
2020/03/18 12:15,0.53,41
2020/03/18 12:16,0.56,43
2020/03/18 12:17,0.54,42
2020/03/18 12:18,0.56,43
2020/03/18 12:19,0.56,43
2020/03/18 12:20,0.57,44
2020/03/18 12:21,0.57,44
2020/03/18 12:22,0.56,43
2020/03/18 12:23,0.56,43
2020/03/18 12:24,0.56,43
2020/03/18 12:25,0.56,43
2020/03/18 12:26,0.56,43
2020/03/18 12:27,0.56,43
2020/03/18 12:28,0.56,43
2020/03/18 12:29,0.56,43
2020/03/18 12:30,0.56,43
2020/03/18 12:31,0.56,43
2020/03/18 12:32,0.56,43
2020/03/18 12:33,0.56,43
2020/03/18 12:34,0.57,44
2020/03/18 12:35,0.56,43
2020/03/18 12:36,0.57,44
2020/03/18 12:37,0.56,43
2020/03/18 12:38,0.56,43
2020/03/18 12:39,0.56,43
2020/03/18 12:40,0.56,43
2020/03/18 12:41,0.57,44
2020/03/18 12:42,0.56,43
2020/03/18 12:43,0.56,43
2020/03/18 12:44,0.56,43
2020/03/18 12:45,0.56,43
2020/03/18 12:46,0.56,43
2020/03/18 12:47,0.56,43
2020/03/18 12:48,0.56,43
2020/03/18 12:49,0.62,48
2020/03/18 12:50,0.56,43
2020/03/18 12:51,0.56,43
2020/03/18 12:52,0.56,43
2020/03/18 12:53,0.56,43
2020/03/18 12:54,0.56,43
2020/03/18 12:55,0.56,43
2020/03/18 12:56,0.56,43
2020/03/18 12:57,0.57,44
2020/03/18 12:58,0.56,43
2020/03/18 12:59,0.56,43
2020/03/18 13:00,0.57,44
2020/03/18 13:01,0.58,45
2020/03/18 13:02,0.56,43
2020/03/18 13:03,0.57,44
2020/03/18 13:04,0.56,43
2020/03/18 13:05,0.56,43
2020/03/18 13:06,0.56,43
2020/03/18 13:07,0.56,43
2020/03/18 13:08,0.56,43
2020/03/18 13:09,0.56,43
2020/03/18 13:10,0.56,43
2020/03/18 13:11,0.57,44
2020/03/18 13:12,0.56,43
2020/03/18 13:13,0.56,43
2020/03/18 13:14,0.56,43
2020/03/18 13:15,0.56,43
2020/03/18 13:16,0.58,45
2020/03/18 13:17,0.57,44
2020/03/18 13:18,0.56,43
2020/03/18 13:19,0.57,44
2020/03/18 13:20,0.57,44
2020/03/18 13:21,0.57,44
2020/03/18 13:22,0.57,44
2020/03/18 13:23,0.57,44
2020/03/18 13:24,0.56,43
2020/03/18 13:25,0.56,43
2020/03/18 13:26,0.57,44
2020/03/18 13:27,0.57,44
2020/03/18 13:28,0.60,46
2020/03/18 13:29,0.65,50
2020/03/18 13:30,0.60,46
2020/03/18 13:31,0.56,43
2020/03/18 13:32,0.56,43
2020/03/18 13:33,0.58,45
2020/03/18 13:34,0.56,43
2020/03/18 13:35,0.56,43
2020/03/18 13:36,0.56,43
2020/03/18 13:37,0.56,43
2020/03/18 13:38,0.56,43
2020/03/18 13:39,0.56,43
